{
  "name": {
    "message": "Искать картинку в Яндекс"
  },
  "description":{
    "message": "Контекстное меню 'Искать картинку в Яндекс'"
  },
  "searchFor": {
    "message": "Искать в Яндекс"
  }
}